{
    "__COMMENT__": "Alert widget start",
    "textPosition": "bottom",
    "mediaType": "gif",
    "__COMMENT__": "Alert widget end",
    "labels": {
        "numberOfVotes": "of votes",
        "widgetTitle": "LIVE MONEYLINE",
    },
    "placeBetUrl": "https://sportradar.com",
    "widgetType": "live-moneyline",
    "widgetVariation": "bar",
    "timer": "bar",
    "legalLogoSrc": "https://newcasinofreespins.com/wp-content/uploads/2019/10/18-gambling.png",
    "sponsors": [{
        "logo_url": "https://cf-blast-storage.livelikecdn.com/assets/165d524b-14fa-4a8c-bf28-fb6f29c38936.png",
        "name": "Logo name"
    }],
    "betDetails": [{
        "bet": "+120",
        "description": "Everton"
    }, {
        "bet": "+360",
        "description": "Draw",
    }, {
        "bet": "+240",
        "description": "Man City",
    }],
    "animationDelay": 3000,
    "placeBetLabel": "PLACE BET"
}
