{
    "widgetType": "live-odds",
    "sportsbookLogoUrl": "https://cf-blast-storage.livelikecdn.com/assets/165d524b-14fa-4a8c-bf28-fb6f29c38936.png",
    "labels": {
        "information": "Tap on odds to place bets or set notifications.",
        "disclaimer": "Responsible gaming:",
        "disclaimerDescription": "Lorem ipsum dolor sit amet, consectetur adipiscing elit. Praesent non ligula non purus posuere fringilla in in erat. Donec tempus, augue in ultricies cursus, mauris libero tincidunt neque, in accumsan nulla felis sed elit. Suspendisse suscipit convallis finibus. Vivamus nec ullamcorper metus, eu rhoncus ex. Sed fringilla eleifend nisl, nec pulvinar mauris porta quis. Nullam nec dapibus dolor. Phasellus nisl orci, suscipit sit amet arcu nec, pulvinar auctor augue. Sed ornare pulvinar sem at aliquam. Aenean metus nisi, dapibus quis arcu et, tristique bibendum dui. Integer aliquam erat ac tortor congue, quis commodo metus laoreet. Suspendisse eget dolor non ipsum fermentum lacinia id quis diam. Mauris arcu purus, iaculis quis orci vitae, dapibus tempus enim. Nam cursus condimentum est a faucibus. Maecenas mi elit, cursus non nulla consequat, pharetra pharetra arcu. Pellentesque scelerisque pretium massa eget eleifend."
    },
    "placeBetLabel": "Place Bet",
    "placeBetUrl": "https://sportradar.com",
    "teams": [
        {
            "description": "GSW",
            "imageUrl": "https://images.ctfassets.net/a4rx79jcl3n1/139uoz1HBz6PsWh8pEqOCK/eced155325ccb92acf76962ca5d688e5/gsw-logo-1920.png",
        },
        {
            "description": "BKN",
            "imageUrl": "https://content.sportslogos.net/logos/6/3786/full/brooklyn_nets_logo_alternate_20138452.png",
        }
    ],
    "betDetails": [
        {
            "marketId": "sr:merket:1",
            "marketName": "SPREAD",
            "marketOptions": [
                {
                    "description": "+1.5",
                    "odds": "-200",
                    "outcomeId": "sr:outcome:11",
                    "url": "https://livelike.com"
                },
                {
                    "description": "-1.5",
                    "odds": "+200",
                    "isSuspended": true,
                    "outcomeId": "sr:outcome:12",
                    "url": "https://livelike.com"
                }
            ]
        },
        {
            "marketId": "sr:merket:2",
            "marketName": "MONEYLINE",
            "marketOptions": [
                {
                    "odds": "+205",
                    "outcomeId": "sr:outcome:21",
                    "url": "https://livelike.com"
                },
                {
                    "odds": "-278",
                    "outcomeId": "sr:outcome:22",
                    "url": "https://livelike.com"
                }
            ]
        },
        {
            "marketId": "sr:merket:3",
            "marketName": "TOTAL",
            "marketOptions": [
                {
                    "description": "O 222",
                    "odds": "-110",
                    "outcomeId": "sr:outcome:31",
                    "url": "https://livelike.com"
                },
                {
                    "description": "U 222",
                    "odds": "-110",
                    "outcomeId": "sr:outcome:32",
                    "url": "https://livelike.com"
                }
            ]
        }
    ]
}
