{
    "id": "e690648d-cfb1-4bf5-80c2-bce6e3eab384",
    "pubnub_enabled": true,
    "url": "https://cf-blast.livelikecdn.com/api/v1/image-quizzes/e690648d-cfb1-4bf5-80c2-bce6e3eab384/",
    "program_id": "4e9c93eb-8863-4df1-beea-e9ba10fe61aa",
    "client_id": "RuHpZaHvgP252o0oMw75cmaZAQ1pjG34UdyyqDF2",
    "created_at": "2023-04-20T13:35:16.058241Z",
    "kind": "text-quiz",
    "published_at": null,
    "scheduled_at": null,
    "interactive_until": null,
    "question": "What was the result of the previous match?",
    "timeout": "P0DT00H00M05S",
    "choices": [
        {
            "id": "1",
            "description": "Everton (correct)",
            "is_correct": true,
            "answer_url": "https://blastrt-prod-us-east-1.livelikecdn.com/api/v1/widget-interactions/image-quiz/e690648d-cfb1-4bf5-80c2-bce6e3eab384/choices/b1251e58-3593-47cc-bc9a-2d7fbcb43782/answers/eyJhbGciOiJIUzI1NiIsInR5cCI6IkpXVCJ9.eyJlbmNyeXB0ZWQiOiJnQUFBQUFCa1FULVVsX0IzVDVoMThRNFdSeTRyZUI2QThHUkRhMTRTMS1vTVgxb0RRRVlNMzIwSjh3M0Jxdk5FSlpKX2FpZUpnbGZ4cVdoYW16Q1llODB0VXRmZFFNbk5JQT09IiwiaXNzIjoiYmxhc3QiLCJpYXQiOjE2ODE5OTc3MTZ9._obS4fBgvHnHa2H7M1XDqMwTiZcEDk7bigI4yPB8pIY/",
            "answer_count": 0,
            "translations": {},
            "translatable_fields": [
                "description"
            ]
        },
        {
            "id": "2",
            "description": "Draw",
            "is_correct": false,
            "answer_url": "https://blastrt-prod-us-east-1.livelikecdn.com/api/v1/widget-interactions/image-quiz/e690648d-cfb1-4bf5-80c2-bce6e3eab384/choices/722fd4ec-c203-47de-91b4-2e536b377d17/answers/eyJhbGciOiJIUzI1NiIsInR5cCI6IkpXVCJ9.eyJlbmNyeXB0ZWQiOiJnQUFBQUFCa1FULVVFNG92UDBtbk1Bby1NeGx1WkJ4ZUFTVHZ5R1Npdk01OVhaLW13VmtTcUN6cFVaZ0FkakNhMTBtYjNMSjVnVGdOMTNUYWw4MHdfQ0dGaFZ3SG80cUVDQT09IiwiaXNzIjoiYmxhc3QiLCJpYXQiOjE2ODE5OTc3MTZ9.KMwHJkcLaH_BEvwENMEaqpvA8a6ydIbfOsc7maNwWc0/",
            "answer_count": 0,
            "translations": {},
            "translatable_fields": [
                "description"
            ]
        },
        {
            "id": "3",
            "description": "Man City",
            "is_correct": false,
            "answer_url": "https://blastrt-prod-us-east-1.livelikecdn.com/api/v1/widget-interactions/image-quiz/e690648d-cfb1-4bf5-80c2-bce6e3eab384/choices/dcec0809-85cb-430c-b665-af2654b38193/answers/eyJhbGciOiJIUzI1NiIsInR5cCI6IkpXVCJ9.eyJlbmNyeXB0ZWQiOiJnQUFBQUFCa1FULVUtM2pqUDFhY1lMRW5oRFN1M0YwVDRNNVR6X3lqMzVLek54MFgwa2NyYVQ2dFlhWXgyMk45c2V6b0JsdHZTZURBYzRqMlJ4cnBTUnNsMG1tYkRBWUljdz09IiwiaXNzIjoiYmxhc3QiLCJpYXQiOjE2ODE5OTc3MTZ9.6PR9d3NLX3ubu2FPRPDp9uzCKIxrN4fMMoHnwI2vr58/",
            "answer_count": 0,
            "translations": {},
            "translatable_fields": [
                "description"
            ]
        }
    ],
    "subscribe_channel": "program.widget.4e9c93eb-8863-4df1-beea-e9ba10fe61aa",
    "program_date_time": null,
    "publish_delay": "P0DT00H00M00S",
    "interaction_url": "https://cf-blast.livelikecdn.com/api/v1/image-quizzes/e690648d-cfb1-4bf5-80c2-bce6e3eab384/interactions/",
    "impression_url": "https://blastrt-prod-us-east-1.livelikecdn.com/api/v1/widget-impressions/image-quiz/e690648d-cfb1-4bf5-80c2-bce6e3eab384/",
    "impression_count": 0,
    "unique_impression_count": 0,
    "engagement_count": 0,
    "engagement_percent": "0.000",
    "status": "pending",
    "created_by": {
        "id": "728b47c1-d2b9-4d8c-a823-3e3d92d40ffa",
        "name": null,
        "image_url": null
    },
    "schedule_url": "https://cf-blast.livelikecdn.com/api/v1/image-quizzes/e690648d-cfb1-4bf5-80c2-bce6e3eab384/schedule/",
    "rewards_url": null,
    "translations": {},
    "translatable_fields": [
        "question"
    ],
    "reactions": [],
    "custom_data": "{}",
    "sponsors": [],
    "earnable_rewards": [
        {
            "reward_item_id": "4115ad4f-651a-4334-b2cf-aa278f7a2ea0",
            "reward_item_name": "Reward1",
            "reward_action_key": "quiz-correct",
            "reward_item_amount": 1
        }
    ],
    "widget_interactions_url_template": "https://cf-blast.livelikecdn.com/api/v1/profiles/{profile_id}/widget-interactions/?image_quiz_id=e690648d-cfb1-4bf5-80c2-bce6e3eab384",
    "widget_attributes": []
}
